Avaliação Final da Disciplina de Aprendizado de Máquina com R
…
intervalo01<- function(x){
  (x-min(x))/(max(x)-min(x))}

#Importa a tabela condensada, exclui as linhas com dados faltantes e coloca valores grandes entre 0-1

tabela_modelo <- tabela_modelo %>% 
  drop_na() %>% 
  mutate(POPULACAO = intervalo01(POPULACAO),
            MEDIA_DOSES_RECEBIDAS = intervalo01(MEDIA_DOSES_RECEBIDAS),
            Mes_decreto_medida = intervalo01(Mes_decreto_medida))

tabela_modelo

## # A tibble: 89 x 73
##    POPULACAO MEDIA_DOSES_RECEBIDAS PERCENTUAL_MEDIO_A~ SEXO_FEMININO RACA_BRANCA
##        <dbl>                 <dbl>               <dbl>         <dbl>       <dbl>
##  1   0.00609               0.00582               0.907         0.558       0.918
##  2   0.605                 0.519                 0.869         0.580       0.636
##  3   0.0141                0.0148                0.916         0.563       0.958
##  4   0.0252                0.0276                0.905         0.566       0.876
##  5   0.0490                0.0463                0.891         0.556       0.783
##  6   0.347                 0.328                 0.863         0.587       0.670
##  7   0.0368                0.0337                0.821         0.549       0.770
##  8   0.00547               0.00334               0.917         0.552       0.900
##  9   0.0155                0.0148                0.883         0.566       0.955
## 10   0.0368                0.0311                0.897         0.564       0.954
## # ... with 79 more rows, and 68 more variables:
## #   Nao_adotou_medidas_isolamento <lgl>,
## #   Orientou_populacao_ficar_em_casa <lgl>, Decretou_isolamento_social <lgl>,
## #   Mes_decreto_medida <dbl>, Monitoriza_isolamento <lgl>,
## #   Barreira_sanitaria <lgl>, Acao_barreira_informativa <lgl>,
## #   Acao_barreira_local_origem <lgl>, Acao_barreira_proibe_entrada <lgl>,
## #   Acao_barreira_outra <lgl>, Acao_barreira_nao_sabe <lgl>, ...
…
## 
## FALSE  TRUE 
##    70     3

coefs_estimates<- coef(lasso, s= lasso$lambda.min)
coefs<- coefs_estimates %>% 
  as.matrix() %>% 
  as_tibble
names(coefs) = "Estimativa"
coefs %>% 
  mutate(variavel = rownames(coefs_estimates)) %>% 
  arrange(desc(abs(Estimativa)))

## # A tibble: 73 x 2
##    Estimativa variavel                        
##         <dbl> <chr>                           
##  1     1.01   (Intercept)                     
##  2    -0.127  Mascara_obrigatoria_publico     
##  3    -0.0310 MEDIA_DOSES_RECEBIDAS           
##  4     0      POPULACAO                       
##  5     0      SEXO_FEMININO                   
##  6     0      RACA_BRANCA                     
##  7     0      Nao_adotou_medidas_isolamento   
##  8     0      Orientou_populacao_ficar_em_casa
##  9     0      Decretou_isolamento_social      
## 10     0      Mes_decreto_medida              
## # ... with 63 more rows
…
